%YAML 1.1
%TAG !u! tag:unity3d.com,2011:
--- !u!74 &7400000
AnimationClip:
  m_ObjectHideFlags: 0
  m_PrefabParentObject: {fileID: 0}
  m_PrefabInternal: {fileID: 0}
  m_Name: Descolgar
  serializedVersion: 6
  m_Legacy: 0
  m_Compressed: 0
  m_UseHighQualityCurve: 1
  m_RotationCurves: []
  m_CompressedRotationCurves: []
  m_EulerCurves: []
  m_PositionCurves: []
  m_ScaleCurves: []
  m_FloatCurves: []
  m_PPtrCurves:
  - curve:
    - time: 0
      value: {fileID: 21300000, guid: ba311106a07049a48a244aa7328b75ff, type: 3}
    - time: 0.083333336
      value: {fileID: 21300000, guid: e342e5a36b1f5e64a847f2d82ea9d47f, type: 3}
    - time: 0.16666667
      value: {fileID: 21300000, guid: 2407206e9da8c1446ac201a4abab1af8, type: 3}
    - time: 0.25
      value: {fileID: 21300000, guid: a0bb3519f1338e34b9770d45975b5edb, type: 3}
    - time: 0.33333334
      value: {fileID: 21300000, guid: 00c6246028d69e141b1f76ba477e2f29, type: 3}
    - time: 0.41666666
      value: {fileID: 21300000, guid: 4ec4384cb2b7eb14c94c4941ef69defa, type: 3}
    - time: 0.5
      value: {fileID: 21300000, guid: a1da92c1e62998b41b096236fb0ecae6, type: 3}
    - time: 0.5833333
      value: {fileID: 21300000, guid: 6d0b51f3edfe21441a241388b81820f0, type: 3}
    - time: 0.6666667
      value: {fileID: 21300000, guid: 2e1aeaf098f54ee469f98410ab37c0f9, type: 3}
    - time: 0.75
      value: {fileID: 21300000, guid: dc7e9e7b221ab524da989beb1d07b81a, type: 3}
    - time: 0.8333333
      value: {fileID: 21300000, guid: aae22d7c8536c424eb426c122fdc982e, type: 3}
    - time: 0.9166667
      value: {fileID: 21300000, guid: 120e9563c55902c42b216e7eebaa5caf, type: 3}
    - time: 1
      value: {fileID: 21300000, guid: 762f68e2335b03a418346b1103db07e3, type: 3}
    - time: 1.0833334
      value: {fileID: 21300000, guid: 22bac44a2a4d4ab4abd2dfe1958bfc0b, type: 3}
    - time: 1.1666666
      value: {fileID: 21300000, guid: 465bafb73e8ddf446b22ed6d0a060f3c, type: 3}
    - time: 1.25
      value: {fileID: 21300000, guid: 5107d3fe0f11e194cbe0ca58a8843b2c, type: 3}
    - time: 1.3333334
      value: {fileID: 21300000, guid: 35a429c43c814874891b0f3b97362595, type: 3}
    - time: 1.4166666
      value: {fileID: 21300000, guid: 86c3ba4585c495049b04cae0be26809e, type: 3}
    - time: 1.5
      value: {fileID: 21300000, guid: c0d2402eed0fe4d46b1d386f070244b9, type: 3}
    - time: 1.5833334
      value: {fileID: 21300000, guid: 2270594bdc58e6b47840cebc4055cd34, type: 3}
    - time: 1.6666666
      value: {fileID: 21300000, guid: a6d02ea656dc5e148a4f9bccc3798811, type: 3}
    - time: 1.75
      value: {fileID: 21300000, guid: 40073e7995e973a4a9d4a66539625e79, type: 3}
    - time: 1.8333334
      value: {fileID: 21300000, guid: 951d4e32702365f45b72e0d935a2b50e, type: 3}
    - time: 1.9166666
      value: {fileID: 21300000, guid: 0ba37b8ca10d1f446b3468cefab8a465, type: 3}
    - time: 2
      value: {fileID: 21300000, guid: 1d48f39213858524ab01897b5329c122, type: 3}
    - time: 2.0833333
      value: {fileID: 21300000, guid: 882ea645e7a36ff4ebd65ea66ecbdee6, type: 3}
    - time: 2.1666667
      value: {fileID: 21300000, guid: 69b9d57bcd0d0404ca93ac9fba483585, type: 3}
    - time: 2.25
      value: {fileID: 21300000, guid: a7f67b6542297b54685807074cdece22, type: 3}
    attribute: m_Sprite
    path: 
    classID: 114
    script: {fileID: -765806418, guid: f70555f144d8491a825f0804e09c671c, type: 3}
  m_SampleRate: 12
  m_WrapMode: 0
  m_Bounds:
    m_Center: {x: 0, y: 0, z: 0}
    m_Extent: {x: 0, y: 0, z: 0}
  m_ClipBindingConstant:
    genericBindings:
    - serializedVersion: 2
      path: 0
      attribute: 2015549526
      script: {fileID: -765806418, guid: f70555f144d8491a825f0804e09c671c, type: 3}
      typeID: 114
      customType: 0
      isPPtrCurve: 1
    pptrCurveMapping:
    - {fileID: 21300000, guid: ba311106a07049a48a244aa7328b75ff, type: 3}
    - {fileID: 21300000, guid: e342e5a36b1f5e64a847f2d82ea9d47f, type: 3}
    - {fileID: 21300000, guid: 2407206e9da8c1446ac201a4abab1af8, type: 3}
    - {fileID: 21300000, guid: a0bb3519f1338e34b9770d45975b5edb, type: 3}
    - {fileID: 21300000, guid: 00c6246028d69e141b1f76ba477e2f29, type: 3}
    - {fileID: 21300000, guid: 4ec4384cb2b7eb14c94c4941ef69defa, type: 3}
    - {fileID: 21300000, guid: a1da92c1e62998b41b096236fb0ecae6, type: 3}
    - {fileID: 21300000, guid: 6d0b51f3edfe21441a241388b81820f0, type: 3}
    - {fileID: 21300000, guid: 2e1aeaf098f54ee469f98410ab37c0f9, type: 3}
    - {fileID: 21300000, guid: dc7e9e7b221ab524da989beb1d07b81a, type: 3}
    - {fileID: 21300000, guid: aae22d7c8536c424eb426c122fdc982e, type: 3}
    - {fileID: 21300000, guid: 120e9563c55902c42b216e7eebaa5caf, type: 3}
    - {fileID: 21300000, guid: 762f68e2335b03a418346b1103db07e3, type: 3}
    - {fileID: 21300000, guid: 22bac44a2a4d4ab4abd2dfe1958bfc0b, type: 3}
    - {fileID: 21300000, guid: 465bafb73e8ddf446b22ed6d0a060f3c, type: 3}
    - {fileID: 21300000, guid: 5107d3fe0f11e194cbe0ca58a8843b2c, type: 3}
    - {fileID: 21300000, guid: 35a429c43c814874891b0f3b97362595, type: 3}
    - {fileID: 21300000, guid: 86c3ba4585c495049b04cae0be26809e, type: 3}
    - {fileID: 21300000, guid: c0d2402eed0fe4d46b1d386f070244b9, type: 3}
    - {fileID: 21300000, guid: 2270594bdc58e6b47840cebc4055cd34, type: 3}
    - {fileID: 21300000, guid: a6d02ea656dc5e148a4f9bccc3798811, type: 3}
    - {fileID: 21300000, guid: 40073e7995e973a4a9d4a66539625e79, type: 3}
    - {fileID: 21300000, guid: 951d4e32702365f45b72e0d935a2b50e, type: 3}
    - {fileID: 21300000, guid: 0ba37b8ca10d1f446b3468cefab8a465, type: 3}
    - {fileID: 21300000, guid: 1d48f39213858524ab01897b5329c122, type: 3}
    - {fileID: 21300000, guid: 882ea645e7a36ff4ebd65ea66ecbdee6, type: 3}
    - {fileID: 21300000, guid: 69b9d57bcd0d0404ca93ac9fba483585, type: 3}
    - {fileID: 21300000, guid: a7f67b6542297b54685807074cdece22, type: 3}
  m_AnimationClipSettings:
    serializedVersion: 2
    m_AdditiveReferencePoseClip: {fileID: 0}
    m_AdditiveReferencePoseTime: 0
    m_StartTime: 0
    m_StopTime: 2.3333333
    m_OrientationOffsetY: 0
    m_Level: 0
    m_CycleOffset: 0
    m_HasAdditiveReferencePose: 0
    m_LoopTime: 0
    m_LoopBlend: 0
    m_LoopBlendOrientation: 0
    m_LoopBlendPositionY: 0
    m_LoopBlendPositionXZ: 0
    m_KeepOriginalOrientation: 0
    m_KeepOriginalPositionY: 1
    m_KeepOriginalPositionXZ: 0
    m_HeightFromFeet: 0
    m_Mirror: 0
  m_EditorCurves: []
  m_EulerEditorCurves: []
  m_HasGenericRootTransform: 0
  m_HasMotionFloatCurves: 0
  m_GenerateMotionCurves: 0
  m_Events: []
